	.file	"multiply.c"
	.text
	.section	.text.startup,"ax",@progbits
	.p2align 4,,15
	.globl	main
	.type	main, @function
main:
.LFB11:
	.cfi_startproc
	movl	$15, %eax
	ret
	.cfi_endproc
.LFE11:
	.size	main, .-main
	.ident	"GCC: (GNU) 8.5.0 20210514 (Red Hat 8.5.0-4)"
	.section	.note.GNU-stack,"",@progbits
